<?xml version="1.0" encoding="UTF-8"?>
<!DOCTYPE svg PUBLIC "-//W3C//DTD SVG 1.1//EN" "http://www.w3.org/Graphics/SVG/1.1/DTD/svg11.dtd">
<!-- Creator: CorelDRAW 2017 -->
<svg xmlns="http://www.w3.org/2000/svg" xml:space="preserve" width="30px" height="30px" version="1.1" style="shape-rendering:geometricPrecision; text-rendering:geometricPrecision; image-rendering:optimizeQuality; fill-rule:evenodd; clip-rule:evenodd"
viewBox="0 0 30 30"
 xmlns:xlink="http://www.w3.org/1999/xlink">
 <defs>
  <style type="text/css">
   <![CDATA[
    .fil0 {fill:black}
   ]]>
  </style>
 </defs>
 <g id="Слой_x0020_1">
  <metadata id="CorelCorpID_0Corel-Layer"/>
  <path class="fil0" d="M8 9.24l7 4.03 6.99 -4.04 -6.99 -4.03 -7 4.04zm5.5 6.62l-6.99 -4.04 0 8.08 6.99 4.04 0 -8.08zm3 0l0 8.08 6.99 -4.03 0 -8.08 -6.99 4.03zm9.98 -6.63l0.01 11.54c0,0.6 -0.36,1.13 -0.88,1.36l-9.87 5.7c-0.47,0.27 -1.04,0.25 -1.49,-0.01l-9.99 -5.76c-0.5,-0.29 -0.77,-0.83 -0.74,-1.37l0 -11.46c0,-0.55 0.3,-1.03 0.74,-1.29l9.99 -5.77c0.48,-0.27 1.05,-0.26 1.5,0l9.99 5.77c0.48,0.28 0.74,0.78 0.74,1.29z"/>
 </g>
</svg>
